_SCRAP_ID,_TYPE,_NAME,_COMMENT,xcoord,ycoord,zcoord,mvalue
"0",station,aura.0,,246786.66,5024242.17,1583.09,0
"0",station,aura.1,,246790.1,5024239.69,1574.32,0
"0",station,aura.2,,246781.42,5024242.54,1586.36,0
"0",station,aura.3,,246781.59,5024242.91,1591.62,0
"0",station,aura.4,,246781.88,5024241.88,1597.58,0
"0",station,aura.5,,246778.59,5024242.39,1599.45,0
"0",station,aura.6,,246776.43,5024242.27,1608.74,0
"0",station,aura.7,,246774.53,5024243.65,1608.64,0
"0",station,aura.8,,246773.39,5024244.28,1607.01,0
"0",station,aura.9,,246772.26,5024245.69,1604.85,0
"0",station,aura.10,,246771.61,5024245.9,1607.54,0
"0",station,aura.11,Puits de l'Aura,246771.07,5024246.54,1612.75,0
"0",station,j1-3.0,,246789.98,5024250.06,1606.93,0
"0",station,j1-3.1,,246790.83,5024245.71,1609,0
"0",station,j1-3.2,,246791.36,5024240.57,1607.71,0
"0",station,j1-3.3,,246790.07,5024241.73,1606.45,0
"0",station,p1.0,,246796.96,5024237.79,1603.32,0
"0",station,p1.1,,246795.39,5024239.63,1604.88,0
"0",station,p1.2,,246794.6,5024241.79,1604.65,0
"0",station,p1.3,,246793.71,5024243.75,1602.86,0
"0",station,p1.4,,246792.78,5024245.81,1604.61,0
"0",station,p1.5,,246791.12,5024247.58,1606.84,0
"0",station,p1.6,puits 1,246790.83,5024245.71,1609,0
"0",station,p2b.0,,246795.86,5024247.38,1581.21,0
"0",station,p2b.1,,246795.05,5024245.61,1585.2,0
"0",station,p2b.2,,246795.56,5024245.63,1590.78,0
"0",station,p2b.3,,246795.79,5024245.47,1597.37,0
"0",station,p2b.4,,246795.2,5024244.7,1598.43,0
"0",station,p2b.5,,246795.55,5024243.95,1599.58,0
"0",station,p2b.6,,246795.07,5024243.99,1601.35,0
"0",station,p2b.7,,246795,5024242.74,1603.66,0
"0",station,p2b.8,,246793.71,5024243.75,1602.86,0
"0",station,vire.0,Grotte de la Vire,246788.14,5024257.33,1591.9,0
"0",station,vire.1,,246789.13,5024254.84,1589.42,0
"0",station,vire.2,,246793.36,5024252.55,1584.68,0
"0",station,vire.5,,246795.86,5024247.38,1581.21,0
"0",station,vire.6,,246799.63,5024249.05,1580.07,0
"0",station,p3.0,,246791.31,5024234.4,1571.62,0
"0",station,p3.1,,246788.25,5024235.74,1573.95,0
"0",station,p3.2,,246785.36,5024234.97,1575.91,0
"0",station,p3.3,,246782.44,5024232.93,1577.39,0
"0",station,p3.4,,246790.1,5024239.69,1574.32,0
"0",station,p3.5,,246791.18,5024240.25,1591.66,0
"0",station,p3.6,,246791.95,5024241.37,1598.29,0
"0",station,p3.7,,246790.2,5024240.77,1600.52,0
"0",station,p3.8,,246790.11,5024242.08,1604.41,0
"0",station,p3.9,,246790.07,5024241.73,1606.45,0
